…
``` r
cancer_sample_untidy <- cancer_sample %>% pivot_longer(cols = c(-ID, -diagnosis), names_to = c(".value", "statistic"), names_pattern = '(.*)_(.*)')
cancer_sample_untidy
```

    ## # A tibble: 1,707 × 13
    ##          ID diagnosis statistic radius texture perimeter   area smoothness
    ##       <dbl> <chr>     <chr>      <dbl>   <dbl>     <dbl>  <dbl>      <dbl>
    ##  1   842302 M         mean      18.0    10.4      123.   1001      0.118  
    ##  2   842302 M         se         1.10    0.905      8.59  153.     0.00640
    ##  3   842302 M         worst     25.4    17.3      185.   2019      0.162  
    ##  4   842517 M         mean      20.6    17.8      133.   1326      0.0847 
    ##  5   842517 M         se         0.544   0.734      3.40   74.1    0.00522
    ##  6   842517 M         worst     25.0    23.4      159.   1956      0.124  
    ##  7 84300903 M         mean      19.7    21.2      130    1203      0.110  
    ##  8 84300903 M         se         0.746   0.787      4.58   94.0    0.00615
    ##  9 84300903 M         worst     23.6    25.5      152.   1709      0.144  
    ## 10 84348301 M         mean      11.4    20.4       77.6   386.     0.142  
    ## # ℹ 1,697 more rows
    ## # ℹ 5 more variables: compactness <dbl>, concavity <dbl>, concave_points <dbl>,
    ## #   symmetry <dbl>, fractal_dimension <dbl>

This dataset is untidy because each tumour is represented by several
rows. In other words, each row is **not** a single observation. To tidy
the dataset, it is necessary to picot wider so the each tumour is
reflected in a single row.

``` r
cancer_sample_tidy <- cancer_sample_untidy %>% pivot_wider(names_from = statistic, values_from = c(-ID, -diagnosis, -statistic)) 
cancer_sample_tidy
```

    ## # A tibble: 569 × 32
    ##          ID diagnosis radius_mean radius_se radius_worst texture_mean texture_se
    ##       <dbl> <chr>           <dbl>     <dbl>        <dbl>        <dbl>      <dbl>
    ##  1   842302 M                18.0     1.10          25.4         10.4      0.905
    ##  2   842517 M                20.6     0.544         25.0         17.8      0.734
    ##  3 84300903 M                19.7     0.746         23.6         21.2      0.787
    ##  4 84348301 M                11.4     0.496         14.9         20.4      1.16 
    ##  5 84358402 M                20.3     0.757         22.5         14.3      0.781
    ##  6   843786 M                12.4     0.334         15.5         15.7      0.890
    ##  7   844359 M                18.2     0.447         22.9         20.0      0.773
    ##  8 84458202 M                13.7     0.584         17.1         20.8      1.38 
    ##  9   844981 M                13       0.306         15.5         21.8      1.00 
    ## 10 84501001 M                12.5     0.298         15.1         24.0      1.60 
    ## # ℹ 559 more rows
    ## # ℹ 25 more variables: texture_worst <dbl>, perimeter_mean <dbl>,
    ## #   perimeter_se <dbl>, perimeter_worst <dbl>, area_mean <dbl>, area_se <dbl>,
    ## #   area_worst <dbl>, smoothness_mean <dbl>, smoothness_se <dbl>,
    ## #   smoothness_worst <dbl>, compactness_mean <dbl>, compactness_se <dbl>,
    ## #   compactness_worst <dbl>, concavity_mean <dbl>, concavity_se <dbl>,
    ## #   concavity_worst <dbl>, concave_points_mean <dbl>, …
…
<!--------------------------- Start your work below --------------------------->

I will pick two version of the data for each research question noted in
2.3. Call them ***cancer_sample_1*** and ***cancer_sample_2*** for
research question 1 and 2 respectively.

``` r
## Interested in symmetry and fractal dimension, so filter out all unrelated variables. 
cancer_sample_1 <- cancer_sample %>% select(starts_with(c('symmetry', 'fractal_dimension'))) %>% arrange()
cancer_sample_1
```

    ## # A tibble: 569 × 6
    ##    symmetry_mean symmetry_se symmetry_worst fractal_dimension_mean
    ##            <dbl>       <dbl>          <dbl>                  <dbl>
    ##  1         0.242      0.0300          0.460                 0.0787
    ##  2         0.181      0.0139          0.275                 0.0567
    ##  3         0.207      0.0225          0.361                 0.0600
    ##  4         0.260      0.0596          0.664                 0.0974
    ##  5         0.181      0.0176          0.236                 0.0588
    ##  6         0.209      0.0216          0.398                 0.0761
    ##  7         0.179      0.0137          0.306                 0.0574
    ##  8         0.220      0.0149          0.320                 0.0745
    ##  9         0.235      0.0214          0.438                 0.0739
    ## 10         0.203      0.0179          0.437                 0.0824
    ## # ℹ 559 more rows
    ## # ℹ 2 more variables: fractal_dimension_se <dbl>, fractal_dimension_worst <dbl>

``` r
## Interested in diagnosis, radius, texture, smoothness, compactness, concavity, symmetry, and fractal dimension. Filter out non-distinct rows in case data is updated. 
## Mutate the diagnosis variable so that the levels are represetned with numerical values. This will help when we apply glm() later. 
cancer_sample_2 <- cancer_sample %>% 
                    arrange() %>% 
                    select(diagnosis, starts_with(c('radius', 'texture', 'smoothness', 'compactness', 'concavity', 'symmetry', 'fractal_dimension'))) %>% 
                    distinct() %>% 
                    mutate(diagnosis = case_when(diagnosis == 'M' ~ 1,
                                                 diagnosis == 'B' ~ 0))
cancer_sample_2
```

    ## # A tibble: 569 × 22
    ##    diagnosis radius_mean radius_se radius_worst texture_mean texture_se
    ##        <dbl>       <dbl>     <dbl>        <dbl>        <dbl>      <dbl>
    ##  1         1        18.0     1.10          25.4         10.4      0.905
    ##  2         1        20.6     0.544         25.0         17.8      0.734
    ##  3         1        19.7     0.746         23.6         21.2      0.787
    ##  4         1        11.4     0.496         14.9         20.4      1.16 
    ##  5         1        20.3     0.757         22.5         14.3      0.781
    ##  6         1        12.4     0.334         15.5         15.7      0.890
    ##  7         1        18.2     0.447         22.9         20.0      0.773
    ##  8         1        13.7     0.584         17.1         20.8      1.38 
    ##  9         1        13       0.306         15.5         21.8      1.00 
    ## 10         1        12.5     0.298         15.1         24.0      1.60 
    ## # ℹ 559 more rows
    ## # ℹ 16 more variables: texture_worst <dbl>, smoothness_mean <dbl>,
    ## #   smoothness_se <dbl>, smoothness_worst <dbl>, compactness_mean <dbl>,
    ## #   compactness_se <dbl>, compactness_worst <dbl>, concavity_mean <dbl>,
    ## #   concavity_se <dbl>, concavity_worst <dbl>, symmetry_mean <dbl>,
    ## #   symmetry_se <dbl>, symmetry_worst <dbl>, fractal_dimension_mean <dbl>,
    ## #   fractal_dimension_se <dbl>, fractal_dimension_worst <dbl>
…
