…
I choose to explore only the mean values in the data set (each attribute
includes its mean, standard error, and worst value). Additionally, I
will remove perimeter_mean and area_mean since they are highly
correlated with radius_mean. I will also remove concavity_points_mean
since it seems from the pervious exercise it might be related to
concavity_mean.

``` r
cancer_sample_reduced <- cancer_sample %>%  select(diagnosis, radius_mean, texture_mean, smoothness_mean, 
                                                   compactness_mean, concavity_mean, symmetry_mean, fractal_dimension_mean)
cancer_sample_reduced
```

    ## # A tibble: 569 × 8
    ##    diagnosis radius_mean texture_mean smoothness_mean compactness_mean
    ##    <chr>           <dbl>        <dbl>           <dbl>            <dbl>
    ##  1 M                18.0         10.4          0.118            0.278 
    ##  2 M                20.6         17.8          0.0847           0.0786
    ##  3 M                19.7         21.2          0.110            0.160 
    ##  4 M                11.4         20.4          0.142            0.284 
    ##  5 M                20.3         14.3          0.100            0.133 
    ##  6 M                12.4         15.7          0.128            0.17  
    ##  7 M                18.2         20.0          0.0946           0.109 
    ##  8 M                13.7         20.8          0.119            0.164 
    ##  9 M                13           21.8          0.127            0.193 
    ## 10 M                12.5         24.0          0.119            0.240 
    ## # ℹ 559 more rows
    ## # ℹ 3 more variables: concavity_mean <dbl>, symmetry_mean <dbl>,
    ## #   fractal_dimension_mean <dbl>
…
